Base_01.txt
Base_02.txt
Base_03.txt
Base_05.txt
Base_06.txt
Base_07.txt
Base_08.txt
Base_09.txt
Base_10.txt
Base_11.txt
Base_12.txt
Base_13.txt
Base_14.txt
Base_16.txt
Base_18.txt
Base_19.txt
Base_20.txt
Base_22.txt